(module Arduino_Pro_Mini (layer F.Cu) (tedit 5EF6555A)
  (fp_text reference REF** (at 7.62 -2.794) (layer F.SilkS)
    (effects (font (size 1 1) (thickness 0.15)))
  )
  (fp_text value Arduino_Pro_Mini (at 7.62 30.48) (layer F.Fab)
    (effects (font (size 1 1) (thickness 0.15)))
  )
  (fp_line (start 16.8 -1.6) (end -1.55 -1.6) (layer F.CrtYd) (width 0.05))
  (fp_line (start 16.8 29.55) (end 16.8 -1.6) (layer F.CrtYd) (width 0.05))
  (fp_line (start -1.55 29.55) (end 16.8 29.55) (layer F.CrtYd) (width 0.05))
  (fp_line (start -1.55 -1.6) (end -1.55 29.55) (layer F.CrtYd) (width 0.05))
  (fp_line (start 16.68 -1.39) (end -1.44 -1.39) (layer F.SilkS) (width 0.12))
  (fp_line (start 16.68 29.33) (end 16.68 -1.39) (layer F.SilkS) (width 0.12))
  (fp_line (start -1.44 29.33) (end 16.68 29.33) (layer F.SilkS) (width 0.12))
  (fp_line (start -1.44 -1.39) (end -1.44 29.33) (layer F.SilkS) (width 0.12))
  (fp_line (start 13.68 -1.33) (end 8.62 -1.33) (layer F.SilkS) (width 0.12))
  (fp_line (start 13.68 29.27) (end 13.68 -1.33) (layer F.SilkS) (width 0.12))
  (fp_line (start 1.56 29.27) (end 13.68 29.27) (layer F.SilkS) (width 0.12))
  (fp_line (start 1.56 -1.33) (end 1.56 29.27) (layer F.SilkS) (width 0.12))
  (fp_line (start 6.62 -1.33) (end 1.56 -1.33) (layer F.SilkS) (width 0.12))
  (fp_line (start 16.51 -1.33) (end -1.27 -1.33) (layer F.Fab) (width 0.1))
  (fp_line (start 16.51 29.27) (end 16.51 -1.33) (layer F.Fab) (width 0.1))
  (fp_line (start -1.27 29.27) (end 16.51 29.27) (layer F.Fab) (width 0.1))
  (fp_line (start -1.27 -1.33) (end -1.27 29.27) (layer F.Fab) (width 0.1))
  (fp_line (start 0.255 -0.27) (end 1.255 -1.27) (layer F.Fab) (width 0.1))
  (fp_line (start 0.255 29.21) (end 0.255 -0.27) (layer F.Fab) (width 0.1))
  (fp_line (start 14.985 29.21) (end 0.255 29.21) (layer F.Fab) (width 0.1))
  (fp_line (start 14.985 -1.27) (end 14.985 29.21) (layer F.Fab) (width 0.1))
  (fp_line (start 1.255 -1.27) (end 14.985 -1.27) (layer F.Fab) (width 0.1))
  (fp_arc (start 7.62 -1.33) (end 6.62 -1.33) (angle -180) (layer F.SilkS) (width 0.12))
  (fp_text user %R (at 7.62 13.97) (layer F.Fab)
    (effects (font (size 1 1) (thickness 0.15)))
  )
  (pad 1 thru_hole rect (at 0 0) (size 2.4 1.6) (drill 1) (layers *.Cu *.Mask))
  (pad 2 thru_hole oval (at 0 2.54) (size 2.4 1.6) (drill 1) (layers *.Cu *.Mask))
  (pad 3 thru_hole oval (at 0 5.08) (size 2.4 1.6) (drill 1) (layers *.Cu *.Mask))
  (pad 4 thru_hole oval (at 0 7.62) (size 2.4 1.6) (drill 1) (layers *.Cu *.Mask))
  (pad 5 thru_hole oval (at 0 10.16) (size 2.4 1.6) (drill 1) (layers *.Cu *.Mask))
  (pad 6 thru_hole oval (at 0 12.7) (size 2.4 1.6) (drill 1) (layers *.Cu *.Mask))
  (pad 7 thru_hole oval (at 0 15.24) (size 2.4 1.6) (drill 1) (layers *.Cu *.Mask))
  (pad 8 thru_hole oval (at 0 17.78) (size 2.4 1.6) (drill 1) (layers *.Cu *.Mask))
  (pad 9 thru_hole oval (at 0 20.32) (size 2.4 1.6) (drill 1) (layers *.Cu *.Mask))
  (pad 10 thru_hole oval (at 0 22.86) (size 2.4 1.6) (drill 1) (layers *.Cu *.Mask))
  (pad 11 thru_hole oval (at 0 25.4) (size 2.4 1.6) (drill 1) (layers *.Cu *.Mask))
  (pad 12 thru_hole oval (at 0 27.94) (size 2.4 1.6) (drill 1) (layers *.Cu *.Mask))
  (pad 13 thru_hole oval (at 15.24 27.94) (size 2.4 1.6) (drill 1) (layers *.Cu *.Mask))
  (pad 14 thru_hole oval (at 15.24 25.4) (size 2.4 1.6) (drill 1) (layers *.Cu *.Mask))
  (pad 15 thru_hole oval (at 15.24 22.86) (size 2.4 1.6) (drill 1) (layers *.Cu *.Mask))
  (pad 16 thru_hole oval (at 15.24 20.32) (size 2.4 1.6) (drill 1) (layers *.Cu *.Mask))
  (pad 17 thru_hole oval (at 15.24 17.78) (size 2.4 1.6) (drill 1) (layers *.Cu *.Mask))
  (pad 18 thru_hole oval (at 15.24 15.24) (size 2.4 1.6) (drill 1) (layers *.Cu *.Mask))
  (pad 19 thru_hole oval (at 15.24 12.7) (size 2.4 1.6) (drill 1) (layers *.Cu *.Mask))
  (pad 20 thru_hole oval (at 15.24 10.16) (size 2.4 1.6) (drill 1) (layers *.Cu *.Mask))
  (pad 21 thru_hole oval (at 15.24 7.62) (size 2.4 1.6) (drill 1) (layers *.Cu *.Mask))
  (pad 22 thru_hole oval (at 15.24 5.08) (size 2.4 1.6) (drill 1) (layers *.Cu *.Mask))
  (pad 23 thru_hole oval (at 15.24 2.54) (size 2.4 1.6) (drill 1) (layers *.Cu *.Mask))
  (pad 24 thru_hole oval (at 15.24 0) (size 2.4 1.6) (drill 1) (layers *.Cu *.Mask))
  (pad 26 thru_hole oval (at 12.7 8.89) (size 2.4 1.6) (drill 0.762) (layers *.Cu *.Mask))
  (pad 25 thru_hole oval (at 12.7 11.43) (size 2.4 1.6) (drill 0.762) (layers *.Cu *.Mask))
  (pad 28 thru_hole oval (at 12.7 19.05) (size 2.4 1.6) (drill 0.762) (layers *.Cu *.Mask))
  (pad 27 thru_hole oval (at 12.7 21.59) (size 2.4 1.6) (drill 0.762) (layers *.Cu *.Mask))
  (model "CIRCUIT BOARD,ARDUINO PRO MINI.STEP"
    (offset (xyz 7.65 -12.7 4.02))
    (scale (xyz 1 1 1))
    (rotate (xyz -90 0 90))
  )
  (model ${KISYS3DMOD}/Package_DIP.3dshapes/DIP-24_W15.24mm_Socket.wrl
    (at (xyz 0 0 0))
    (scale (xyz 1 1 1))
    (rotate (xyz 0 0 0))
  )
  (model ${KISYS3DMOD}/Connector_PinHeader_2.54mm.3dshapes/PinHeader_1x06_P2.54mm_Vertical.step
    (offset (xyz 1.2954 2.54 4.0132))
    (scale (xyz 1 1 1))
    (rotate (xyz 0 0 -90))
  )
)
